{
    "num_$TRKTAG_all" : {
        "type" : "TH1F",
        "xAxis" : { "title" : "N. of $TRKTYPEs", "nBins" : "500", "low" : "0", "high" : "5000" },
        "yAxis" : { "title" : "Entries" }
    },
    "num_$TRKTAG_selected" : {
        "type" : "TH1F",
        "xAxis" : { "title" : "N. of Selected $TRKTYPEs", "nBins" : "500", "low" : "0", "high" : "5000" },
        "yAxis" : { "title" : "Entries" }
    },
    "num_$TRKTAG_selectedInRoI" : {
        "type" : "TH1F",
        "xAxis" : { "title" : "N. of Selected in RoI $TRKTYPEs", "nBins" : "100", "low" : "0", "high" : "100" },
        "yAxis" : { "title" : "Entries" }
    },
    "num_$TRKTAG_matched" : {
        "type" : "TH1F",
        "xAxis" : { "title" : "N. of Matched $TRKTYPEs", "nBins" : "100", "low" : "0", "high" : "100" },
        "yAxis" : { "title" : "Entries" }
    },
    "num_$TRKTAG_selected_vs_truthMu" : {
        "type" : "TH2F",
        "xAxis" : { "title" : "Truth <#mu>", "nBins" : "$NMUBINS", "low" : "0", "high" : "$EXPMUMAX" },
        "yAxis" : { "title" : "N. of Selected $TRKTYPEs", "nBins" : "200", "low" : "0", "high" : "2000" }
    },
    "num_$TRKTAG_selected_vs_actualMu" : {
        "type" : "TH2F",
        "xAxis" : { "title" : "Truth <#mu>", "nBins" : "$NMUBINS", "low" : "0", "high" : "$EXPMUMAX" },
        "yAxis" : { "title" : "N. of Selected $TRKTYPEs", "nBins" : "200", "low" : "0", "high" : "2000" }
    }
}
