EgEfficiencyCorr_testE... INFO    Environment initialised for data access
EgEfficiencyCorr_testE...INFO    Opening file: /cvmfs/atlas-nightlies.cern.ch/repo/data/data-art/ASG/DAOD_PHYS/p6490/mc20_13TeV.410470.PhPy8EG_A14_ttbar_hdamp258p75_nonallhad.deriv.DAOD_PHYS.e6337_s3681_r13167_r13146_p6490/DAOD_PHYS.41651753._000001.pool.root.1
EgEfficiencyCorr_testE...INFO    Number of available events to read in:  40000
EgEfficiencyCorr_testE...INFO    Number actual events to read in:  40
EgEfficiencyCorr_testE...INFO     
 ==> Event 0
EgEfficiencyCorr_testE...INFO    ===> electron : Pt = 17528.9 : eta = -0.315257 : Bin index = 26 : SF = 1.01718 + 0.107446 - 0.107446 <===
EgEfficiencyCorr_testE...INFO    ===> electron : Pt = 17586.1 : eta = 0.167143 : Bin index = 29 : SF = 1.01491 + 0.107349 - 0.107349 <===
EgEfficiencyCorr_testE...INFO    ===> electron : Pt = 7035.18 : eta = -1.21801 : Bin index = 8 : SF = 0.981131 + 0.23714 - 0.23714 <===
EgEfficiencyCorr_testE...INFO     
 ==> Event 1
EgEfficiencyCorr_testE...INFO    ===> electron : Pt = 68099.7 : eta = 0.601073 : Bin index = 189 : SF = 0.983421 + 0.00981042 - 0.00981042 <===
EgEfficiencyCorr_testE...INFO    ===> electron : Pt = 25915.2 : eta = -0.844151 : Bin index = 64 : SF = 1.00004 + 0.0328333 - 0.0328333 <===
EgEfficiencyCorr_testE...INFO    ===> electron : Pt = 8008.56 : eta = 0.494392 : Bin index = 7 : SF = 0.9471 + 0.193092 - 0.193092 <===
EgEfficiencyCorr_testE...INFO    ===> electron : Pt = 9674.74 : eta = -2.14937 : Bin index = 11 : SF = 0.88084 + 0.275149 - 0.275149 <===
EgEfficiencyCorr_testE...INFO     
 ==> Event 2
EgEfficiencyCorr_testE...INFO    ===> electron : Pt = 22956.6 : eta = 0.450761 : Bin index = 49 : SF = 1.01426 + 0.0710615 - 0.0710615 <===
EgEfficiencyCorr_testE...INFO    ===> electron : Pt = 34042 : eta = 1.07116 : Bin index = 91 : SF = 0.987669 + 0.00865959 - 0.00865959 <===
EgEfficiencyCorr_testE...INFO    ===> electron : Pt = 20213.9 : eta = 1.72437 : Bin index = 54 : SF = 1.01712 + 0.0593275 - 0.0593275 <===
EgEfficiencyCorr_testE...INFO    ===> electron : Pt = 10667.9 : eta = 1.89226 : Bin index = 16 : SF = 0.992439 + 0.297014 - 0.297014 <===
EgEfficiencyCorr_testE...INFO    ===> electron : Pt = 7417.96 : eta = 1.94284 : Bin index = 10 : SF = 1.0367 + 0.36908 - 0.36908 <===
EgEfficiencyCorr_testE...INFO     
 ==> Event 3
EgEfficiencyCorr_testE...INFO    ===> electron : Pt = 86306.5 : eta = 1.31262 : Bin index = 212 : SF = 0.991218 + 0.00628353 - 0.00628353 <===
EgEfficiencyCorr_testE...INFO    ===> electron : Pt = 20022.8 : eta = 0.0816782 : Bin index = 49 : SF = 1.01426 + 0.0710615 - 0.0710615 <===
EgEfficiencyCorr_testE...INFO    ===> electron : Pt = 11636 : eta = 1.06462 : Bin index = 14 : SF = 0.963332 + 0.229128 - 0.229128 <===
EgEfficiencyCorr_testE...INFO    ===> electron : Pt = 8681.89 : eta = 0.800631 : Bin index = 8 : SF = 0.981131 + 0.23714 - 0.23714 <===
EgEfficiencyCorr_testE...INFO    ===> electron : Pt = 7697.87 : eta = 0.943486 : Bin index = 8 : SF = 0.981131 + 0.23714 - 0.23714 <===
EgEfficiencyCorr_testE...INFO    ===> electron : Pt = 11944.9 : eta = 1.10991 : Bin index = 14 : SF = 0.963332 + 0.229128 - 0.229128 <===
EgEfficiencyCorr_testE...INFO    ===> electron : Pt = 7091.13 : eta = 0.977055 : Bin index = 8 : SF = 0.981131 + 0.23714 - 0.23714 <===
EgEfficiencyCorr_testE...INFO    ===> electron : Pt = 9892.27 : eta = -1.85705 : Bin index = 10 : SF = 1.0367 + 0.36908 - 0.36908 <===
EgEfficiencyCorr_testE...INFO    ===> electron : Pt = 8167.57 : eta = 1.40121 : Bin index = 9 : SF = 1.11299 + 0.774016 - 0.774016 <===
EgEfficiencyCorr_testE...INFO     
 ==> Event 4
EgEfficiencyCorr_testE...INFO    ===> electron : Pt = 17849.8 : eta = -0.538574 : Bin index = 26 : SF = 1.01718 + 0.107446 - 0.107446 <===
EgEfficiencyCorr_testE...INFO    ===> electron : Pt = 9552.35 : eta = -1.40078 : Bin index = 9 : SF = 1.11299 + 0.774016 - 0.774016 <===
EgEfficiencyCorr_testE...INFO    ===> electron : Pt = 12460.2 : eta = -1.28059 : Bin index = 14 : SF = 0.963332 + 0.229128 - 0.229128 <===
EgEfficiencyCorr_testE...INFO    ===> electron : Pt = 17150.3 : eta = -1.50968 : Bin index = 22 : SF = 1.07375 + 0.183502 - 0.183502 <===
EgEfficiencyCorr_testE...INFO    ===> electron : Pt = 7207.27 : eta = -1.3224 : Bin index = 8 : SF = 0.981131 + 0.23714 - 0.23714 <===
EgEfficiencyCorr_testE...INFO     
 ==> Event 5
EgEfficiencyCorr_testE...INFO    ===> electron : Pt = 67743.7 : eta = -0.997097 : Bin index = 184 : SF = 0.987841 + 0.00434112 - 0.00434112 <===
EgEfficiencyCorr_testE...INFO     
 ==> Event 6
EgEfficiencyCorr_testE...INFO    ===> electron : Pt = 21142.1 : eta = -1.89382 : Bin index = 40 : SF = 0.995983 + 0.0352785 - 0.0352785 <===
EgEfficiencyCorr_testE...INFO    ===> electron : Pt = 18749.7 : eta = -0.58621 : Bin index = 26 : SF = 1.01718 + 0.107446 - 0.107446 <===
EgEfficiencyCorr_testE...INFO    ===> electron : Pt = 8668.41 : eta = -0.639109 : Bin index = 7 : SF = 0.9471 + 0.193092 - 0.193092 <===
EgEfficiencyCorr_testE...INFO    ===> electron : Pt = 16275 : eta = -2.13973 : Bin index = 19 : SF = 0.982313 + 0.0555136 - 0.0555136 <===
EgEfficiencyCorr_testE...INFO    ===> electron : Pt = 16900 : eta = -1.20296 : Bin index = 23 : SF = 1.02191 + 0.189841 - 0.189841 <===
EgEfficiencyCorr_testE...INFO    ===> electron : Pt = 8483.51 : eta = -0.59621 : Bin index = 7 : SF = 0.9471 + 0.193092 - 0.193092 <===
EgEfficiencyCorr_testE...INFO    ===> electron : Pt = 11074.4 : eta = -0.677559 : Bin index = 13 : SF = 0.952911 + 0.194602 - 0.194602 <===
EgEfficiencyCorr_testE...INFO    ===> electron : Pt = 7456.71 : eta = -1.11549 : Bin index = 8 : SF = 0.981131 + 0.23714 - 0.23714 <===
EgEfficiencyCorr_testE...INFO    ===> electron : Pt = 7267.89 : eta = 1.59823 : Bin index = 10 : SF = 1.0367 + 0.36908 - 0.36908 <===
EgEfficiencyCorr_testE...INFO     
 ==> Event 7
EgEfficiencyCorr_testE...INFO    ===> electron : Pt = 9199.83 : eta = -2.07084 : Bin index = 11 : SF = 0.88084 + 0.275149 - 0.275149 <===
EgEfficiencyCorr_testE...INFO    ===> electron : Pt = 8937.03 : eta = -1.3236 : Bin index = 8 : SF = 0.981131 + 0.23714 - 0.23714 <===
EgEfficiencyCorr_testE...INFO    ===> electron : Pt = 7055.51 : eta = 1.52949 : Bin index = 9 : SF = 1.11299 + 0.774016 - 0.774016 <===
EgEfficiencyCorr_testE...INFO     
 ==> Event 8
EgEfficiencyCorr_testE...INFO    ===> electron : Pt = 32948.1 : eta = -1.6019 : Bin index = 81 : SF = 0.975301 + 0.00355356 - 0.00355356 <===
EgEfficiencyCorr_testE...INFO    ===> electron : Pt = 8392.26 : eta = -0.758178 : Bin index = 7 : SF = 0.9471 + 0.193092 - 0.193092 <===
EgEfficiencyCorr_testE...INFO    ===> electron : Pt = 9014.83 : eta = -1.1553 : Bin index = 8 : SF = 0.981131 + 0.23714 - 0.23714 <===
EgEfficiencyCorr_testE...INFO    ===> electron : Pt = 9395.91 : eta = 0.677896 : Bin index = 7 : SF = 0.9471 + 0.193092 - 0.193092 <===
EgEfficiencyCorr_testE...INFO     
 ==> Event 9
EgEfficiencyCorr_testE...INFO    ===> electron : Pt = 101266 : eta = 0.12601 : Bin index = 209 : SF = 0.990372 + 0.0111243 - 0.0111243 <===
EgEfficiencyCorr_testE...INFO    ===> electron : Pt = 49458.3 : eta = 0.756141 : Bin index = 150 : SF = 0.984602 + 0.00582576 - 0.00582576 <===
EgEfficiencyCorr_testE...INFO    ===> electron : Pt = 10204.8 : eta = -0.217363 : Bin index = 13 : SF = 0.952911 + 0.194602 - 0.194602 <===
EgEfficiencyCorr_testE...INFO    ===> electron : Pt = 9373.21 : eta = 0.653704 : Bin index = 7 : SF = 0.9471 + 0.193092 - 0.193092 <===
EgEfficiencyCorr_testE...INFO     
 ==> Event 10
EgEfficiencyCorr_testE...INFO    ===> electron : Pt = 51737.6 : eta = -0.809532 : Bin index = 164 : SF = 0.990175 + 0.00678915 - 0.00678915 <===
EgEfficiencyCorr_testE...INFO    ===> electron : Pt = 42340.2 : eta = -0.794276 : Bin index = 125 : SF = 0.983931 + 0.00495573 - 0.00495573 <===
EgEfficiencyCorr_testE...INFO    ===> electron : Pt = 28754.9 : eta = -1.4589 : Bin index = 62 : SF = 1.03211 + 0.0403575 - 0.0403575 <===
EgEfficiencyCorr_testE...INFO    ===> electron : Pt = 8700.58 : eta = -1.10221 : Bin index = 8 : SF = 0.981131 + 0.23714 - 0.23714 <===
EgEfficiencyCorr_testE...INFO     
 ==> Event 11
EgEfficiencyCorr_testE...INFO    ===> electron : Pt = 55559.7 : eta = 0.419903 : Bin index = 169 : SF = 0.98531 + 0.0103548 - 0.0103548 <===
EgEfficiencyCorr_testE...INFO    ===> electron : Pt = 20980.4 : eta = -2.2471 : Bin index = 39 : SF = 0.998113 + 0.0440927 - 0.0440927 <===
EgEfficiencyCorr_testE...INFO    ===> electron : Pt = 16263 : eta = -0.631276 : Bin index = 25 : SF = 1.0179 + 0.106804 - 0.106804 <===
EgEfficiencyCorr_testE...INFO    ===> electron : Pt = 7427.61 : eta = 0.404203 : Bin index = 7 : SF = 0.9471 + 0.193092 - 0.193092 <===
EgEfficiencyCorr_testE...INFO     
 ==> Event 12
EgEfficiencyCorr_testE...INFO    ===> electron : Pt = 62205 : eta = -0.718185 : Bin index = 185 : SF = 0.984021 + 0.00504171 - 0.00504171 <===
EgEfficiencyCorr_testE...INFO    ===> electron : Pt = 29561.6 : eta = -0.170157 : Bin index = 66 : SF = 0.999448 + 0.0393478 - 0.0393478 <===
EgEfficiencyCorr_testE...INFO    ===> electron : Pt = 27530.4 : eta = -0.0880786 : Bin index = 66 : SF = 0.999448 + 0.0393478 - 0.0393478 <===
EgEfficiencyCorr_testE...INFO    ===> electron : Pt = 25948.5 : eta = -0.198288 : Bin index = 66 : SF = 0.999448 + 0.0393478 - 0.0393478 <===
EgEfficiencyCorr_testE...INFO    ===> electron : Pt = 12407.4 : eta = -0.0863806 : Bin index = 13 : SF = 0.952911 + 0.194602 - 0.194602 <===
EgEfficiencyCorr_testE...INFO    ===> electron : Pt = 15677.9 : eta = -1.31367 : Bin index = 23 : SF = 1.02191 + 0.189841 - 0.189841 <===
EgEfficiencyCorr_testE...INFO     
 ==> Event 13
EgEfficiencyCorr_testE...INFO    ===> electron : Pt = 45493.4 : eta = 0.21169 : Bin index = 149 : SF = 0.987488 + 0.0112526 - 0.0112526 <===
EgEfficiencyCorr_testE...INFO    ===> electron : Pt = 36716.8 : eta = 0.128362 : Bin index = 109 : SF = 0.986228 + 0.0175047 - 0.0175047 <===
EgEfficiencyCorr_testE...INFO    ===> electron : Pt = 24948.8 : eta = 0.137144 : Bin index = 49 : SF = 1.01426 + 0.0710615 - 0.0710615 <===
EgEfficiencyCorr_testE...INFO    ===> electron : Pt = 19400.6 : eta = 2.24372 : Bin index = 36 : SF = 0.991922 + 0.061115 - 0.061115 <===
EgEfficiencyCorr_testE...INFO    ===> electron : Pt = 7672.2 : eta = 0.16474 : Bin index = 7 : SF = 0.9471 + 0.193092 - 0.193092 <===
EgEfficiencyCorr_testE...INFO    ===> electron : Pt = 7071.1 : eta = 1.14667 : Bin index = 8 : SF = 0.981131 + 0.23714 - 0.23714 <===
EgEfficiencyCorr_testE...INFO    ===> electron : Pt = 7111.69 : eta = -1.06949 : Bin index = 8 : SF = 0.981131 + 0.23714 - 0.23714 <===
EgEfficiencyCorr_testE...INFO     
 ==> Event 14
EgEfficiencyCorr_testE...INFO    ===> electron : Pt = 70667.1 : eta = 0.0596846 : Bin index = 188 : SF = 0.977269 + 0.0111169 - 0.0111169 <===
EgEfficiencyCorr_testE...INFO    ===> electron : Pt = 60240.8 : eta = -1.39809 : Bin index = 182 : SF = 0.980339 + 0.01841 - 0.01841 <===
EgEfficiencyCorr_testE...INFO    ===> electron : Pt = 20427.8 : eta = -0.481509 : Bin index = 46 : SF = 1.01159 + 0.0668905 - 0.0668905 <===
EgEfficiencyCorr_testE...INFO    ===> electron : Pt = 14491.7 : eta = -0.358327 : Bin index = 13 : SF = 0.952911 + 0.194602 - 0.194602 <===
EgEfficiencyCorr_testE...INFO    ===> electron : Pt = 15212.2 : eta = -1.39305 : Bin index = 22 : SF = 1.07375 + 0.183502 - 0.183502 <===
EgEfficiencyCorr_testE...INFO    ===> electron : Pt = 9085.09 : eta = -1.34905 : Bin index = 9 : SF = 1.11299 + 0.774016 - 0.774016 <===
EgEfficiencyCorr_testE...INFO    ===> electron : Pt = 8407.06 : eta = -0.519597 : Bin index = 7 : SF = 0.9471 + 0.193092 - 0.193092 <===
EgEfficiencyCorr_testE...INFO    ===> electron : Pt = 9079.98 : eta = -1.46429 : Bin index = 9 : SF = 1.11299 + 0.774016 - 0.774016 <===
EgEfficiencyCorr_testE...INFO     
 ==> Event 15
EgEfficiencyCorr_testE...INFO    ===> electron : Pt = 11548 : eta = 0.419725 : Bin index = 13 : SF = 0.952911 + 0.194602 - 0.194602 <===
EgEfficiencyCorr_testE...INFO    ===> electron : Pt = 9624.33 : eta = 0.388053 : Bin index = 7 : SF = 0.9471 + 0.193092 - 0.193092 <===
EgEfficiencyCorr_testE...INFO    ===> electron : Pt = 16679.6 : eta = -1.44136 : Bin index = 22 : SF = 1.07375 + 0.183502 - 0.183502 <===
EgEfficiencyCorr_testE...INFO     
 ==> Event 16
EgEfficiencyCorr_testE...INFO    ===> electron : Pt = 52647.8 : eta = 0.771352 : Bin index = 170 : SF = 0.983843 + 0.00339868 - 0.00339868 <===
EgEfficiencyCorr_testE...INFO    ===> electron : Pt = 26190 : eta = 0.916809 : Bin index = 71 : SF = 0.999526 + 0.0340737 - 0.0340737 <===
EgEfficiencyCorr_testE...INFO    ===> electron : Pt = 12678 : eta = 0.963077 : Bin index = 14 : SF = 0.963332 + 0.229128 - 0.229128 <===
EgEfficiencyCorr_testE...INFO    ===> electron : Pt = 10556.2 : eta = 0.901068 : Bin index = 14 : SF = 0.963332 + 0.229128 - 0.229128 <===
EgEfficiencyCorr_testE...INFO    ===> electron : Pt = 8160.39 : eta = 1.14454 : Bin index = 8 : SF = 0.981131 + 0.23714 - 0.23714 <===
EgEfficiencyCorr_testE...INFO    ===> electron : Pt = 7309.17 : eta = 0.9758 : Bin index = 8 : SF = 0.981131 + 0.23714 - 0.23714 <===
EgEfficiencyCorr_testE...INFO     
 ==> Event 17
EgEfficiencyCorr_testE...INFO    ===> electron : Pt = 74241.9 : eta = -0.962774 : Bin index = 184 : SF = 0.987841 + 0.00434112 - 0.00434112 <===
EgEfficiencyCorr_testE...INFO    ===> electron : Pt = 13826.3 : eta = -0.134723 : Bin index = 13 : SF = 0.952911 + 0.194602 - 0.194602 <===
EgEfficiencyCorr_testE...INFO    ===> electron : Pt = 14288.8 : eta = 0.927911 : Bin index = 14 : SF = 0.963332 + 0.229128 - 0.229128 <===
EgEfficiencyCorr_testE...INFO    ===> electron : Pt = 7312.93 : eta = -0.0957245 : Bin index = 7 : SF = 0.9471 + 0.193092 - 0.193092 <===
EgEfficiencyCorr_testE...INFO     
 ==> Event 18
EgEfficiencyCorr_testE...INFO    ===> electron : Pt = 37600.5 : eta = 1.49877 : Bin index = 113 : SF = 0.992541 + 0.0128365 - 0.0128365 <===
EgEfficiencyCorr_testE...INFO    ===> electron : Pt = 9039.43 : eta = -1.16427 : Bin index = 8 : SF = 0.981131 + 0.23714 - 0.23714 <===
EgEfficiencyCorr_testE...INFO    ===> electron : Pt = 7566.53 : eta = 0.154279 : Bin index = 7 : SF = 0.9471 + 0.193092 - 0.193092 <===
EgEfficiencyCorr_testE...INFO    ===> electron : Pt = 7530.32 : eta = 0.223357 : Bin index = 7 : SF = 0.9471 + 0.193092 - 0.193092 <===
EgEfficiencyCorr_testE...INFO    ===> electron : Pt = 10354.8 : eta = 1.53579 : Bin index = 16 : SF = 0.992439 + 0.297014 - 0.297014 <===
EgEfficiencyCorr_testE...INFO     
 ==> Event 19
EgEfficiencyCorr_testE...INFO     
 ==> Event 20
EgEfficiencyCorr_testE...INFO    ===> electron : Pt = 102538 : eta = -2.18837 : Bin index = 199 : SF = 0.992813 + 0.0117283 - 0.0117283 <===
EgEfficiencyCorr_testE...INFO    ===> electron : Pt = 33214.3 : eta = -2.23481 : Bin index = 79 : SF = 0.995536 + 0.00258752 - 0.00258752 <===
EgEfficiencyCorr_testE...INFO    ===> electron : Pt = 8357.37 : eta = -1.06864 : Bin index = 8 : SF = 0.981131 + 0.23714 - 0.23714 <===
EgEfficiencyCorr_testE...INFO    ===> electron : Pt = 10056.2 : eta = -1.02184 : Bin index = 14 : SF = 0.963332 + 0.229128 - 0.229128 <===
EgEfficiencyCorr_testE...INFO    ===> electron : Pt = 9630.96 : eta = -1.04079 : Bin index = 8 : SF = 0.981131 + 0.23714 - 0.23714 <===
EgEfficiencyCorr_testE...INFO     
 ==> Event 21
EgEfficiencyCorr_testE...INFO    ===> electron : Pt = 25105.7 : eta = 0.805729 : Bin index = 71 : SF = 0.999526 + 0.0340737 - 0.0340737 <===
EgEfficiencyCorr_testE...INFO    ===> electron : Pt = 12893.9 : eta = 0.534561 : Bin index = 13 : SF = 0.952911 + 0.194602 - 0.194602 <===
EgEfficiencyCorr_testE...INFO    ===> electron : Pt = 11236.9 : eta = 0.849207 : Bin index = 14 : SF = 0.963332 + 0.229128 - 0.229128 <===
EgEfficiencyCorr_testE...INFO    ===> electron : Pt = 8570.44 : eta = 0.489134 : Bin index = 7 : SF = 0.9471 + 0.193092 - 0.193092 <===
EgEfficiencyCorr_testE...INFO    ===> electron : Pt = 8718.11 : eta = 0.419919 : Bin index = 7 : SF = 0.9471 + 0.193092 - 0.193092 <===
EgEfficiencyCorr_testE...INFO     
 ==> Event 22
EgEfficiencyCorr_testE...INFO    ===> electron : Pt = 102528 : eta = 0.182567 : Bin index = 209 : SF = 0.990372 + 0.0111243 - 0.0111243 <===
EgEfficiencyCorr_testE...INFO    ===> electron : Pt = 94933.4 : eta = -1.22572 : Bin index = 203 : SF = 0.991748 + 0.00696721 - 0.00696721 <===
EgEfficiencyCorr_testE...INFO    ===> electron : Pt = 42151.8 : eta = 1.9046 : Bin index = 135 : SF = 0.997039 + 0.00150968 - 0.00150968 <===
EgEfficiencyCorr_testE...INFO    ===> electron : Pt = 30416 : eta = 1.38745 : Bin index = 92 : SF = 0.97866 + 0.0108031 - 0.0108031 <===
EgEfficiencyCorr_testE...INFO    ===> electron : Pt = 24615.2 : eta = 2.12554 : Bin index = 56 : SF = 1.00431 + 0.0400852 - 0.0400852 <===
EgEfficiencyCorr_testE...INFO    ===> electron : Pt = 8224.55 : eta = 1.26948 : Bin index = 8 : SF = 0.981131 + 0.23714 - 0.23714 <===
EgEfficiencyCorr_testE...INFO    ===> electron : Pt = 11227.2 : eta = -2.0299 : Bin index = 16 : SF = 0.992439 + 0.297014 - 0.297014 <===
EgEfficiencyCorr_testE...INFO    ===> electron : Pt = 9395.27 : eta = -1.98907 : Bin index = 10 : SF = 1.0367 + 0.36908 - 0.36908 <===
EgEfficiencyCorr_testE...INFO    ===> electron : Pt = 10843 : eta = 2.04124 : Bin index = 17 : SF = 0.928769 + 0.281179 - 0.281179 <===
EgEfficiencyCorr_testE...INFO    ===> electron : Pt = 9986.84 : eta = 1.74716 : Bin index = 10 : SF = 1.0367 + 0.36908 - 0.36908 <===
EgEfficiencyCorr_testE...INFO    ===> electron : Pt = 8550.43 : eta = 2.26184 : Bin index = 11 : SF = 0.88084 + 0.275149 - 0.275149 <===
EgEfficiencyCorr_testE...INFO     
 ==> Event 23
EgEfficiencyCorr_testE...INFO    ===> electron : Pt = 28707.7 : eta = 0.348289 : Bin index = 69 : SF = 1.00182 + 0.0403389 - 0.0403389 <===
EgEfficiencyCorr_testE...INFO    ===> electron : Pt = 16420.8 : eta = -0.706244 : Bin index = 25 : SF = 1.0179 + 0.106804 - 0.106804 <===
EgEfficiencyCorr_testE...INFO    ===> electron : Pt = 24601.8 : eta = 1.55579 : Bin index = 54 : SF = 1.01712 + 0.0593275 - 0.0593275 <===
EgEfficiencyCorr_testE...INFO    ===> electron : Pt = 20207 : eta = 0.74892 : Bin index = 50 : SF = 1.01325 + 0.0724294 - 0.0724294 <===
EgEfficiencyCorr_testE...INFO    ===> electron : Pt = 7693.43 : eta = 0.79592 : Bin index = 8 : SF = 0.981131 + 0.23714 - 0.23714 <===
EgEfficiencyCorr_testE...INFO    ===> electron : Pt = 8557.58 : eta = -1.55129 : Bin index = 10 : SF = 1.0367 + 0.36908 - 0.36908 <===
EgEfficiencyCorr_testE...INFO    ===> electron : Pt = 7362.98 : eta = 0.212317 : Bin index = 7 : SF = 0.9471 + 0.193092 - 0.193092 <===
EgEfficiencyCorr_testE...INFO     
 ==> Event 24
EgEfficiencyCorr_testE...INFO    ===> electron : Pt = 53058.1 : eta = 0.664347 : Bin index = 170 : SF = 0.983843 + 0.00339868 - 0.00339868 <===
EgEfficiencyCorr_testE...INFO    ===> electron : Pt = 32916.9 : eta = 2.32341 : Bin index = 96 : SF = 1.00016 + 0.00493086 - 0.00493086 <===
EgEfficiencyCorr_testE...INFO    ===> electron : Pt = 13940 : eta = 1.85702 : Bin index = 16 : SF = 0.992439 + 0.297014 - 0.297014 <===
EgEfficiencyCorr_testE...INFO     
 ==> Event 25
EgEfficiencyCorr_testE...INFO    ===> electron : Pt = 53910 : eta = -0.442324 : Bin index = 166 : SF = 0.985998 + 0.00993522 - 0.00993522 <===
EgEfficiencyCorr_testE...INFO    ===> electron : Pt = 12528.7 : eta = -1.51092 : Bin index = 15 : SF = 0.882919 + 0.365387 - 0.365387 <===
EgEfficiencyCorr_testE...INFO     
 ==> Event 26
EgEfficiencyCorr_testE...INFO    ===> electron : Pt = 88145.7 : eta = 0.958554 : Bin index = 211 : SF = 0.994759 + 0.00594664 - 0.00594664 <===
EgEfficiencyCorr_testE...INFO    ===> electron : Pt = 24666 : eta = 0.668739 : Bin index = 50 : SF = 1.01325 + 0.0724294 - 0.0724294 <===
EgEfficiencyCorr_testE...INFO    ===> electron : Pt = 17193.5 : eta = -0.211042 : Bin index = 26 : SF = 1.01718 + 0.107446 - 0.107446 <===
EgEfficiencyCorr_testE...INFO    ===> electron : Pt = 18315.7 : eta = 0.541302 : Bin index = 29 : SF = 1.01491 + 0.107349 - 0.107349 <===
EgEfficiencyCorr_testE...INFO    ===> electron : Pt = 7448.57 : eta = 0.8622 : Bin index = 8 : SF = 0.981131 + 0.23714 - 0.23714 <===
EgEfficiencyCorr_testE...INFO    ===> electron : Pt = 12506 : eta = 1.6088 : Bin index = 16 : SF = 0.992439 + 0.297014 - 0.297014 <===
EgEfficiencyCorr_testE...INFO    ===> electron : Pt = 9137.7 : eta = -0.208091 : Bin index = 7 : SF = 0.9471 + 0.193092 - 0.193092 <===
EgEfficiencyCorr_testE...INFO     
 ==> Event 27
EgEfficiencyCorr_testE...INFO    ===> electron : Pt = 18227.7 : eta = -0.761268 : Bin index = 25 : SF = 1.0179 + 0.106804 - 0.106804 <===
EgEfficiencyCorr_testE...INFO    ===> electron : Pt = 22432.2 : eta = -1.18089 : Bin index = 43 : SF = 1.01554 + 0.0764419 - 0.0764419 <===
EgEfficiencyCorr_testE...INFO    ===> electron : Pt = 10873.8 : eta = -2.19111 : Bin index = 17 : SF = 0.928769 + 0.281179 - 0.281179 <===
EgEfficiencyCorr_testE...INFO     
 ==> Event 28
EgEfficiencyCorr_testE...INFO    ===> electron : Pt = 46506.2 : eta = -0.14681 : Bin index = 146 : SF = 0.98701 + 0.0104488 - 0.0104488 <===
EgEfficiencyCorr_testE...INFO    ===> electron : Pt = 16518 : eta = -1.07937 : Bin index = 24 : SF = 1.02476 + 0.14322 - 0.14322 <===
EgEfficiencyCorr_testE...INFO    ===> electron : Pt = 13936.1 : eta = -0.909431 : Bin index = 14 : SF = 0.963332 + 0.229128 - 0.229128 <===
EgEfficiencyCorr_testE...INFO    ===> electron : Pt = 8650.41 : eta = 1.14996 : Bin index = 8 : SF = 0.981131 + 0.23714 - 0.23714 <===
EgEfficiencyCorr_testE...INFO    ===> electron : Pt = 8092.54 : eta = -0.0882703 : Bin index = 6 : SF = 0.924114 + 0.239743 - 0.239743 <===
EgEfficiencyCorr_testE...INFO     
 ==> Event 29
EgEfficiencyCorr_testE...INFO    ===> electron : Pt = 54140.7 : eta = 0.256225 : Bin index = 169 : SF = 0.98531 + 0.0103548 - 0.0103548 <===
EgEfficiencyCorr_testE...INFO    ===> electron : Pt = 10794.4 : eta = -0.512499 : Bin index = 13 : SF = 0.952911 + 0.194602 - 0.194602 <===
EgEfficiencyCorr_testE...INFO    ===> electron : Pt = 10531 : eta = 0.874478 : Bin index = 14 : SF = 0.963332 + 0.229128 - 0.229128 <===
EgEfficiencyCorr_testE...INFO    ===> electron : Pt = 9675.21 : eta = -0.411663 : Bin index = 7 : SF = 0.9471 + 0.193092 - 0.193092 <===
EgEfficiencyCorr_testE...INFO    ===> electron : Pt = 8964.61 : eta = 0.413775 : Bin index = 7 : SF = 0.9471 + 0.193092 - 0.193092 <===
EgEfficiencyCorr_testE...INFO     
 ==> Event 30
EgEfficiencyCorr_testE...INFO    ===> electron : Pt = 9853.26 : eta = 1.36066 : Bin index = 8 : SF = 0.981131 + 0.23714 - 0.23714 <===
EgEfficiencyCorr_testE...INFO    ===> electron : Pt = 9052.2 : eta = 1.71702 : Bin index = 10 : SF = 1.0367 + 0.36908 - 0.36908 <===
EgEfficiencyCorr_testE...INFO     
 ==> Event 31
EgEfficiencyCorr_testE...INFO    ===> electron : Pt = 63624.2 : eta = 2.18056 : Bin index = 196 : SF = 0.990598 + 0.00462891 - 0.00462891 <===
EgEfficiencyCorr_testE...INFO    ===> electron : Pt = 21387.1 : eta = 1.82156 : Bin index = 55 : SF = 1.00772 + 0.047413 - 0.047413 <===
EgEfficiencyCorr_testE...INFO    ===> electron : Pt = 21757.2 : eta = -1.27915 : Bin index = 43 : SF = 1.01554 + 0.0764419 - 0.0764419 <===
EgEfficiencyCorr_testE...INFO    ===> electron : Pt = 11803.9 : eta = 2.14021 : Bin index = 17 : SF = 0.928769 + 0.281179 - 0.281179 <===
EgEfficiencyCorr_testE...INFO    ===> electron : Pt = 7125.75 : eta = 1.02168 : Bin index = 8 : SF = 0.981131 + 0.23714 - 0.23714 <===
EgEfficiencyCorr_testE...INFO     
 ==> Event 32
EgEfficiencyCorr_testE...INFO    ===> electron : Pt = 37280.1 : eta = 0.579716 : Bin index = 109 : SF = 0.986228 + 0.0175047 - 0.0175047 <===
EgEfficiencyCorr_testE...INFO    ===> electron : Pt = 32290.8 : eta = 2.37025 : Bin index = 96 : SF = 1.00016 + 0.00493086 - 0.00493086 <===
EgEfficiencyCorr_testE...INFO    ===> electron : Pt = 17246.4 : eta = 2.22939 : Bin index = 36 : SF = 0.991922 + 0.061115 - 0.061115 <===
EgEfficiencyCorr_testE...INFO    ===> electron : Pt = 13878.9 : eta = 2.33416 : Bin index = 17 : SF = 0.928769 + 0.281179 - 0.281179 <===
EgEfficiencyCorr_testE...INFO    ===> electron : Pt = 13594.3 : eta = 0.441182 : Bin index = 13 : SF = 0.952911 + 0.194602 - 0.194602 <===
EgEfficiencyCorr_testE...INFO    ===> electron : Pt = 7972.94 : eta = 0.0214824 : Bin index = 6 : SF = 0.924114 + 0.239743 - 0.239743 <===
EgEfficiencyCorr_testE...INFO    ===> electron : Pt = 8424.45 : eta = 1.19807 : Bin index = 8 : SF = 0.981131 + 0.23714 - 0.23714 <===
EgEfficiencyCorr_testE...INFO    ===> electron : Pt = 9079.13 : eta = 0.298653 : Bin index = 7 : SF = 0.9471 + 0.193092 - 0.193092 <===
EgEfficiencyCorr_testE...INFO    ===> electron : Pt = 8170.56 : eta = 1.18556 : Bin index = 8 : SF = 0.981131 + 0.23714 - 0.23714 <===
EgEfficiencyCorr_testE...INFO    ===> electron : Pt = 7341.34 : eta = 2.36379 : Bin index = 11 : SF = 0.88084 + 0.275149 - 0.275149 <===
EgEfficiencyCorr_testE...INFO     
 ==> Event 33
EgEfficiencyCorr_testE...INFO    ===> electron : Pt = 13871 : eta = -1.00756 : Bin index = 14 : SF = 0.963332 + 0.229128 - 0.229128 <===
EgEfficiencyCorr_testE...INFO     
 ==> Event 34
EgEfficiencyCorr_testE...INFO    ===> electron : Pt = 15675 : eta = -1.29759 : Bin index = 23 : SF = 1.02191 + 0.189841 - 0.189841 <===
EgEfficiencyCorr_testE...INFO     
 ==> Event 35
EgEfficiencyCorr_testE...INFO    ===> electron : Pt = 128106 : eta = -1.29836 : Bin index = 203 : SF = 0.991748 + 0.00696721 - 0.00696721 <===
EgEfficiencyCorr_testE...INFO    ===> electron : Pt = 35607 : eta = 0.302718 : Bin index = 109 : SF = 0.986228 + 0.0175047 - 0.0175047 <===
EgEfficiencyCorr_testE...INFO    ===> electron : Pt = 124188 : eta = 1.4247 : Bin index = 213 : SF = 1.00019 + 0.00977654 - 0.00977654 <===
EgEfficiencyCorr_testE...INFO    ===> electron : Pt = 33258.4 : eta = 1.89417 : Bin index = 95 : SF = 1.00074 + 0.00266754 - 0.00266754 <===
EgEfficiencyCorr_testE...INFO    ===> electron : Pt = 18874 : eta = 0.918564 : Bin index = 31 : SF = 1.02333 + 0.145006 - 0.145006 <===
EgEfficiencyCorr_testE...INFO    ===> electron : Pt = 18251.4 : eta = 0.524659 : Bin index = 29 : SF = 1.01491 + 0.107349 - 0.107349 <===
EgEfficiencyCorr_testE...INFO    ===> electron : Pt = 26638.5 : eta = 0.286179 : Bin index = 69 : SF = 1.00182 + 0.0403389 - 0.0403389 <===
EgEfficiencyCorr_testE...INFO    ===> electron : Pt = 20806.6 : eta = 0.257038 : Bin index = 49 : SF = 1.01426 + 0.0710615 - 0.0710615 <===
EgEfficiencyCorr_testE...INFO    ===> electron : Pt = 19853.9 : eta = 1.05557 : Bin index = 31 : SF = 1.02333 + 0.145006 - 0.145006 <===
EgEfficiencyCorr_testE...INFO    ===> electron : Pt = 11320.9 : eta = 0.209928 : Bin index = 13 : SF = 0.952911 + 0.194602 - 0.194602 <===
EgEfficiencyCorr_testE...INFO    ===> electron : Pt = 7449.64 : eta = 0.551648 : Bin index = 7 : SF = 0.9471 + 0.193092 - 0.193092 <===
EgEfficiencyCorr_testE...INFO    ===> electron : Pt = 9292.77 : eta = 0.206686 : Bin index = 7 : SF = 0.9471 + 0.193092 - 0.193092 <===
EgEfficiencyCorr_testE...INFO    ===> electron : Pt = 7674.96 : eta = 1.7895 : Bin index = 10 : SF = 1.0367 + 0.36908 - 0.36908 <===
EgEfficiencyCorr_testE...INFO    ===> electron : Pt = 15907.8 : eta = 1.55322 : Bin index = 34 : SF = 1.02008 + 0.108956 - 0.108956 <===
EgEfficiencyCorr_testE...INFO     
 ==> Event 36
EgEfficiencyCorr_testE...INFO    ===> electron : Pt = 35534.4 : eta = -0.367094 : Bin index = 106 : SF = 0.986165 + 0.0176287 - 0.0176287 <===
EgEfficiencyCorr_testE...INFO    ===> electron : Pt = 39813.3 : eta = -0.355536 : Bin index = 106 : SF = 0.986165 + 0.0176287 - 0.0176287 <===
EgEfficiencyCorr_testE...INFO    ===> electron : Pt = 25393 : eta = -0.710177 : Bin index = 65 : SF = 0.995125 + 0.0290993 - 0.0290993 <===
EgEfficiencyCorr_testE...INFO    ===> electron : Pt = 12918.7 : eta = 1.27698 : Bin index = 14 : SF = 0.963332 + 0.229128 - 0.229128 <===
EgEfficiencyCorr_testE...INFO    ===> electron : Pt = 12277.7 : eta = -0.893634 : Bin index = 14 : SF = 0.963332 + 0.229128 - 0.229128 <===
EgEfficiencyCorr_testE...INFO    ===> electron : Pt = 9262.57 : eta = -0.333833 : Bin index = 7 : SF = 0.9471 + 0.193092 - 0.193092 <===
EgEfficiencyCorr_testE...INFO    ===> electron : Pt = 10861.3 : eta = -1.31655 : Bin index = 14 : SF = 0.963332 + 0.229128 - 0.229128 <===
EgEfficiencyCorr_testE...INFO    ===> electron : Pt = 9364.88 : eta = -0.291333 : Bin index = 7 : SF = 0.9471 + 0.193092 - 0.193092 <===
EgEfficiencyCorr_testE...INFO    ===> electron : Pt = 8738.12 : eta = -0.709125 : Bin index = 7 : SF = 0.9471 + 0.193092 - 0.193092 <===
EgEfficiencyCorr_testE...INFO     
 ==> Event 37
EgEfficiencyCorr_testE...INFO    ===> electron : Pt = 142737 : eta = 1.48997 : Bin index = 213 : SF = 1.00019 + 0.00977654 - 0.00977654 <===
EgEfficiencyCorr_testE...INFO    ===> electron : Pt = 35077.1 : eta = 0.40861 : Bin index = 109 : SF = 0.986228 + 0.0175047 - 0.0175047 <===
EgEfficiencyCorr_testE...INFO    ===> electron : Pt = 24909.8 : eta = 1.99228 : Bin index = 56 : SF = 1.00431 + 0.0400852 - 0.0400852 <===
EgEfficiencyCorr_testE...INFO    ===> electron : Pt = 12075.3 : eta = 0.475882 : Bin index = 13 : SF = 0.952911 + 0.194602 - 0.194602 <===
EgEfficiencyCorr_testE...INFO    ===> electron : Pt = 9792.93 : eta = 0.279441 : Bin index = 7 : SF = 0.9471 + 0.193092 - 0.193092 <===
EgEfficiencyCorr_testE...INFO    ===> electron : Pt = 10401.2 : eta = 1.01003 : Bin index = 14 : SF = 0.963332 + 0.229128 - 0.229128 <===
EgEfficiencyCorr_testE...INFO    ===> electron : Pt = 9573.23 : eta = 0.337553 : Bin index = 7 : SF = 0.9471 + 0.193092 - 0.193092 <===
EgEfficiencyCorr_testE...INFO    ===> electron : Pt = 16227 : eta = 1.90522 : Bin index = 35 : SF = 1.00514 + 0.0543518 - 0.0543518 <===
EgEfficiencyCorr_testE...INFO    ===> electron : Pt = 9388.59 : eta = 0.395331 : Bin index = 7 : SF = 0.9471 + 0.193092 - 0.193092 <===
EgEfficiencyCorr_testE...INFO    ===> electron : Pt = 7434.08 : eta = 1.2619 : Bin index = 8 : SF = 0.981131 + 0.23714 - 0.23714 <===
EgEfficiencyCorr_testE...INFO     
 ==> Event 38
EgEfficiencyCorr_testE...INFO    ===> electron : Pt = 19993.2 : eta = -1.12443 : Bin index = 24 : SF = 1.02476 + 0.14322 - 0.14322 <===
EgEfficiencyCorr_testE...INFO    ===> electron : Pt = 18303.6 : eta = 2.03326 : Bin index = 36 : SF = 0.991922 + 0.061115 - 0.061115 <===
EgEfficiencyCorr_testE...INFO    ===> electron : Pt = 19526.3 : eta = -0.75431 : Bin index = 25 : SF = 1.0179 + 0.106804 - 0.106804 <===
EgEfficiencyCorr_testE...INFO    ===> electron : Pt = 16193.2 : eta = -0.748233 : Bin index = 25 : SF = 1.0179 + 0.106804 - 0.106804 <===
EgEfficiencyCorr_testE...INFO    ===> electron : Pt = 14379.6 : eta = -0.909499 : Bin index = 14 : SF = 0.963332 + 0.229128 - 0.229128 <===
EgEfficiencyCorr_testE...INFO    ===> electron : Pt = 8948.77 : eta = -0.710098 : Bin index = 7 : SF = 0.9471 + 0.193092 - 0.193092 <===
EgEfficiencyCorr_testE...INFO    ===> electron : Pt = 9096.59 : eta = -0.113085 : Bin index = 6 : SF = 0.924114 + 0.239743 - 0.239743 <===
EgEfficiencyCorr_testE...INFO     
 ==> Event 39
EgEfficiencyCorr_testE...INFO    ===> electron : Pt = 40913.5 : eta = 1.74801 : Bin index = 134 : SF = 0.992459 + 0.00209808 - 0.00209808 <===
EgEfficiencyCorr_testE...INFO    ===> electron : Pt = 33058 : eta = 2.39294 : Bin index = 97 : SF = 0.935575 + 0.013616 - 0.013616 <===
EgEfficiencyCorr_testE...INFO    ===> electron : Pt = 25874.4 : eta = 1.73359 : Bin index = 74 : SF = 1.0029 + 0.0294738 - 0.0294738 <===
EgEfficiencyCorr_testE...INFO    ===> electron : Pt = 24557.6 : eta = 1.14629 : Bin index = 51 : SF = 1.02277 + 0.079131 - 0.079131 <===
EgEfficiencyCorr_testE...INFO    ===> electron : Pt = 7868.91 : eta = 1.84735 : Bin index = 10 : SF = 1.0367 + 0.36908 - 0.36908 <===
EgEfficiencyCorr_testE...INFO    ===> electron : Pt = 8039.35 : eta = 1.68413 : Bin index = 10 : SF = 1.0367 + 0.36908 - 0.36908 <===
EgEfficiencyCorr_testE...INFO    ===> DONE <===

